C:\Users\Firdavs\Documents\workspace-sts-3.7.0.RELEASE\templateWebApp\src\main\java\com\address\template\bean\CountriesXML.java
C:\Users\Firdavs\Documents\workspace-sts-3.7.0.RELEASE\templateWebApp\src\main\java\com\address\template\exceptions\CustomGenericException.java
C:\Users\Firdavs\Documents\workspace-sts-3.7.0.RELEASE\templateWebApp\src\main\java\com\address\template\bean\Country.java
C:\Users\Firdavs\Documents\workspace-sts-3.7.0.RELEASE\templateWebApp\src\main\java\com\address\template\bean\Countries.java
C:\Users\Firdavs\Documents\workspace-sts-3.7.0.RELEASE\templateWebApp\src\main\java\com\address\template\bean\Countries2.java
C:\Users\Firdavs\Documents\workspace-sts-3.7.0.RELEASE\templateWebApp\src\main\java\com\address\template\controller\CountryController.java
C:\Users\Firdavs\Documents\workspace-sts-3.7.0.RELEASE\templateWebApp\src\main\java\com\address\template\DAO\jdbcCountryDAO.java
